%YAML 1.1
%TAG !u! tag:unity3d.com,2011:
--- !u!21 &2100000
Material:
  serializedVersion: 6
  m_ObjectHideFlags: 0
  m_PrefabParentObject: {fileID: 0}
  m_PrefabInternal: {fileID: 0}
  m_Name: WaterProNighttime
  m_Shader: {fileID: 4800000, guid: 1cac2e0bcc34e4b3cbb4bd85982eba83, type: 3}
  m_ShaderKeywords: 
  m_LightmapFlags: 5
  m_CustomRenderQueue: -1
  stringTagMap: {}
  m_SavedProperties:
    serializedVersion: 2
    m_TexEnvs:
    - first:
        name: _BumpMap
      second:
        m_Texture: {fileID: 2800000, guid: 2dd3788f8589b40bf82a92d76ffc5091, type: 3}
        m_Scale: {x: 1, y: 1}
        m_Offset: {x: 0, y: 0}
    - first:
        name: _Fresnel
      second:
        m_Texture: {fileID: 2800000, guid: 5b5c5575fd4c74abd9f7b30862fb76a3, type: 3}
        m_Scale: {x: 1, y: 1}
        m_Offset: {x: 0, y: 0}
    - first:
        name: _MainTex
      second:
        m_Texture: {fileID: 2800000, guid: e6f8288974c664a309d6c66de636978c, type: 3}
        m_Scale: {x: 1, y: 1}
        m_Offset: {x: 0, y: 0}
    - first:
        name: _ReflectionTex
      second:
        m_Texture: {fileID: 0}
        m_Scale: {x: 1, y: 1}
        m_Offset: {x: 0, y: 0}
    - first:
        name: _ReflectiveColor
      second:
        m_Texture: {fileID: 2800000, guid: b725b62cfc9d04e4886735ab2a8107d1, type: 3}
        m_Scale: {x: 1, y: 1}
        m_Offset: {x: 0, y: 0}
    - first:
        name: _ReflectiveColorCube
      second:
        m_Texture: {fileID: 8900000, guid: 15c6acc4f11254a04b03849245d80574, type: 3}
        m_Scale: {x: 1, y: 1}
        m_Offset: {x: 0, y: 0}
    - first:
        name: _RefractionTex
      second:
        m_Texture: {fileID: 0}
        m_Scale: {x: 1, y: 1}
        m_Offset: {x: 0, y: 0}
    m_Floats:
    - first:
        name: _ReflDistort
      second: 0.44
    - first:
        name: _RefrDistort
      second: 0.4
    - first:
        name: _WaveScale
      second: 0
    m_Colors:
    - first:
        name: WaveSpeed
      second: {r: 9, g: 4.5, b: -8, a: -3.5}
    - first:
        name: _BumpMap_ST
      second: {r: 1, g: 1, b: 0, a: 0}
    - first:
        name: _Color
      second: {r: 1, g: 1, b: 1, a: 1}
    - first:
        name: _Fresnel_ST
      second: {r: 1, g: 1, b: 0, a: 0}
    - first:
        name: _HorizonColor
      second: {r: 0.14901961, g: 0.28235295, b: 0.38039216, a: 0}
    - first:
        name: _MainTex_ST
      second: {r: 1, g: 1, b: 0, a: 0}
    - first:
        name: _ReflectionTex_ST
      second: {r: 1, g: 1, b: 0, a: 0}
    - first:
        name: _ReflectiveColorCube_ST
      second: {r: 1, g: 1, b: 0, a: 0}
    - first:
        name: _ReflectiveColor_ST
      second: {r: 1, g: 1, b: 0, a: 0}
    - first:
        name: _RefrColor
      second: {r: 1, g: 1, b: 1, a: 1}
    - first:
        name: _RefractionTex_ST
      second: {r: 1, g: 1, b: 0, a: 0}
--- !u!1002 &2100001
EditorExtensionImpl:
  serializedVersion: 6
